test/tb_rtl.vcd
$date
	Sun Feb 23 15:51:19 2025
$end
$version
	Icarus Verilog
$end
$timescale
	1ps
$end
$scope module tb $end
$var wire 8 ! uo_out [7:0] $end
$var wire 8 " uio_out [7:0] $end
$var wire 8 # uio_oe [7:0] $end
$var reg 1 $ clk $end
$var reg 1 % ena $end
$var reg 1 & rst_n $end
$var reg 1 ' temp $end
$var reg 8 ( ui_in [7:0] $end
$var reg 8 ) uio_in [7:0] $end
$var real 1 * end_time $end
$var integer 32 + fail_count [31:0] $end
$var real 1 , start $end
$var real 1 - test_time $end
$scope module dut $end
$var wire 1 $ clk $end
$var wire 1 . done $end
$var wire 1 % ena $end
$var wire 1 & rst_n $end
$var wire 8 / ui_in [7:0] $end
$var wire 8 0 uio_in [7:0] $end
$var wire 8 1 uo_out [7:0] $end
$var wire 8 2 uio_out [7:0] $end
$var wire 8 3 uio_oe [7:0] $end
$var wire 4 4 opcode [3:0] $end
$var wire 1 5 oe_n $end
$var wire 4 6 mio_in [3:0] $end
$var wire 1 7 carry $end
$var wire 4 8 bus_in [3:0] $end
$var wire 1 9 _unused $end
$var reg 4 : a [3:0] $end
$var reg 4 ; b [3:0] $end
$var reg 4 < bus_iomask [3:0] $end
$var reg 4 = bus_out [3:0] $end
$var reg 4 > bus_req [3:0] $end
$var reg 5 ? c [4:0] $end
$var reg 4 @ mio_out [3:0] $end
$var reg 3 A state [2:0] $end
$var reg 1 B tog $end
$upscope $end
$upscope $end
$enddefinitions $end
#0
$dumpvars
0B
b0 A
b0 @
b0 ?
b0 >
b0 =
b0 <
b0 ;
b0 :
09
bx 8
07
bx 6
x5
bx 4
b1000000 3
b0 2
b0 1
bx 0
bx /
0.
r0 -
r0 ,
b0 +
r0 *
bx )
bx (
x'
0&
x%
1$
b1000000 #
b0 "
b0 !
$end
#1000
b1 4
b10 6
0$
b100001 (
b100001 /
1&
#2000
b1 6
b10001 (
b10001 /
b1 A
b11 !
b11 1
b11 >
b10 :
1$
#3000
0$
#4000
b100 8
05
b100 )
b100 0
b10 A
b1 !
b1 1
b1 >
b1001111 #
b1001111 3
b1111 <
1$
#5000
0$
#6000
b11 A
b1000000 #
b1000000 3
b0 <
b100 ;
1$
#7000
0$
#8000
b100 A
b110 ?
1$
#9000
0$
#10000
b11 6
b110001 (
b110001 /
r10 -
1.
b0 A
1B
b10000110 "
b10000110 2
b110 =
1$
#11000
b110 "
b110 2
0.
0$
#12000
b1 6
b10001 (
b10001 /
b1 A
b11 !
b11 1
b11 >
b11 :
0B
b110 "
b110 2
0.
1$
#13000
0$
#14000
b10 A
b1 !
b1 1
b1 >
b1001111 #
b1001111 3
b1111 <
1$
#15000
0$
#16000
b11 A
b1000000 #
b1000000 3
b0 <
1$
#17000
0$
#18000
b100 A
b111 ?
1$
#19000
0$
#20000
b0 4
b0 6
r20 *
b0 (
b0 /
1.
b0 A
1B
b10000111 "
b10000111 2
b111 =
1$
