test/tb_rtl.vcd
$date
	Wed Feb 26 14:52:50 2025
$end
$version
	Icarus Verilog
$end
$timescale
	1ps
$end
$scope module tb $end
$var wire 8 ! uo_out [7:0] $end
$var wire 8 " uio_out [7:0] $end
$var wire 8 # uio_oe [7:0] $end
$var reg 1 $ clk $end
$var reg 1 % ena $end
$var reg 1 & rst_n $end
$var reg 1 ' temp $end
$var reg 8 ( ui_in [7:0] $end
$var reg 8 ) uio_in [7:0] $end
$var real 1 * end_time $end
$var integer 32 + fail_count [31:0] $end
$var real 1 , start $end
$var real 1 - test_time $end
$scope module dut $end
$var wire 1 $ clk $end
$var wire 1 . done $end
$var wire 1 % ena $end
$var wire 1 & rst_n $end
$var wire 8 / ui_in [7:0] $end
$var wire 8 0 uio_in [7:0] $end
$var wire 8 1 uo_out [7:0] $end
$var wire 8 2 uio_out [7:0] $end
$var wire 8 3 uio_oe [7:0] $end
$var wire 4 4 opcode [3:0] $end
$var wire 1 5 oe_n $end
$var wire 4 6 mio_in [3:0] $end
$var wire 1 7 carry $end
$var wire 4 8 bus_in [3:0] $end
$var wire 1 9 _unused $end
$var reg 4 : a [3:0] $end
$var reg 4 ; b [3:0] $end
$var reg 4 < bus_iomask [3:0] $end
$var reg 4 = bus_out [3:0] $end
$var reg 4 > bus_req [3:0] $end
$var reg 5 ? c [4:0] $end
$var reg 4 @ mio_out [3:0] $end
$var reg 3 A state [2:0] $end
$var reg 1 B tog $end
$upscope $end
$upscope $end
$enddefinitions $end
#0
$dumpvars
0B
b0 A
b0 @
b0 ?
b0 >
b0 =
b0 <
b0 ;
b0 :
09
bx 8
07
bx 6
05
bx 4
b1000000 3
b0 2
b0 1
bx0xxxx 0
bx /
0.
r0 -
r0 ,
b0 +
r0 *
bx0xxxx )
bx (
x'
0&
x%
1$
b1000000 #
b0 "
b0 !
$end
#1000
b1 4
b10 6
0$
b100001 (
b100001 /
1&
#2000
b11 6
b110001 (
b110001 /
b1 A
b11 !
b11 1
b11 >
b10 :
1$
#3000
0$
#4000
b110 8
bx00110 )
bx00110 0
b10 A
b1 !
b1 1
b1 >
b1001111 #
b1001111 3
b1111 <
1$
#5000
0$
#6000
b11 A
b1000000 #
b1000000 3
b0 <
b110 ;
1$
#7000
0$
#8000
b100 A
b1000 ?
1$
#9000
0$
#10000
r10 -
1.
b0 !
b0 1
b0 >
b0 A
1B
b10001000 "
b10001000 2
b1000 =
1$
#11000
b1000 "
b1000 2
0.
0$
#12000
b1 A
b11 !
b11 1
b11 >
b11 :
0B
b1000 "
b1000 2
0.
1$
#13000
0$
#14000
b10 A
b1 !
b1 1
b1 >
b1001111 #
b1001111 3
b1111 <
1$
#15000
0$
#16000
b11 A
b1000000 #
b1000000 3
b0 <
1$
#17000
0$
#18000
b100 A
b1001 ?
1$
#19000
0$
#20000
b10 4
b10 6
b100010 (
b100010 /
r20 -
1.
b0 !
b0 1
b0 >
b0 A
1B
b10001001 "
b10001001 2
b1001 =
1$
#21000
b1001 "
b1001 2
0.
0$
#22000
b101 8
bx00101 )
bx00101 0
b1 A
b1 !
b1 1
b1 >
0B
b1001 "
b1001 2
0.
1$
#23000
0$
#24000
b11 6
b110010 (
b110010 /
b10 A
b11 !
b11 1
b11 >
b101 :
1$
#25000
0$
#26000
b110 8
bx00110 )
bx00110 0
b11 A
b1 !
b1 1
b1 >
1$
#27000
0$
#28000
b100 A
1$
#29000
0$
#30000
b101 A
b1011 ?
1$
#31000
0$
#32000
b11 4
b10 6
b100011 (
b100011 /
r32 -
1.
b0 !
b0 1
b0 >
b0 A
1B
b10001011 "
b10001011 2
b1011 =
1$
#33000
b1011 "
b1011 2
0.
0$
#34000
b11 6
b110011 (
b110011 /
b1 A
b11 !
b11 1
b11 >
b10 :
0B
b1011 "
b1011 2
0.
1$
#35000
0$
#36000
b10 A
b1 !
b1 1
b1 >
b1001111 #
b1001111 3
b1111 <
1$
#37000
0$
#38000
b11 A
b1000000 #
b1000000 3
b0 <
1$
#39000
0$
#40000
b100 A
b100 ?
1$
#41000
0$
#42000
b100 4
b100 6
b1000100 (
b1000100 /
r42 -
1.
b0 !
b0 1
b0 >
b0 A
1B
b10000100 "
b10000100 2
b100 =
1$
#43000
b100 "
b100 2
0.
0$
#44000
b11 8
bx00011 )
bx00011 0
b1 A
b1 !
b1 1
b1 >
0B
b100 "
b100 2
0.
1$
#45000
0$
#46000
b11 6
b110100 (
b110100 /
b10 A
b11 !
b11 1
b11 >
b11 :
1$
#47000
0$
#48000
b110 8
bx00110 )
bx00110 0
b11 A
b1 !
b1 1
b1 >
1$
#49000
0$
#50000
b100 A
1$
#51000
0$
#52000
b101 A
b11 ?
1$
#53000
0$
#54000
1.
b0 !
b0 1
b0 >
b0 A
1B
b10000011 "
b10000011 2
b11 =
1$
#55000
b11 "
b11 2
0.
0$
#56000
b1 A
b1 !
b1 1
b1 >
0B
b11 "
b11 2
0.
1$
#57000
0$
#58000
b10 A
b11 !
b11 1
b11 >
b110 :
1$
#59000
0$
r59 *
